{"meta": {"limit": 25, "next": "/api/v1/product/?username=ianwang54&api_key=6b23e228cacc2693cb25a789790a82c1cfbe81a6&limit=25&offset=25&transaction_status=on", "offset": 0, "previous": null, "total_count": 737}, "objects": [{"bought_price": null, "buyer_id": "-1", "confirm_list": [], "date_added": "2014-02-13T21:50:17.045000", "date_closed": null, "description": "", "gender": "F", "id": "52fccd99f7500bf86be39921", "image": [{"h50": {"height": 50, "relative_path": "http://tresor.tw/media/images/products/52fccd99f7500bf86be39921-265384587004793154872208176442795543555_h50.jpg", "width": 38}, "w236": {"height": 315, "relative_path": "http://tresor.tw/media/images/products/52fccd99f7500bf86be39921-265070213617344679693853873725059812355_w236.jpg", "width": 236}, "w960": {"height": 1280, "relative_path": "http://tresor.tw/media/images/products/52fccd99f7500bf86be39921-264740143546338878464935538079883512835_w960.jpg", "width": 960}}], "product_status": "全新僅試穿", "resource_type": "clothes", "seller": {"facebook_id": "100000265609375", "facebook_name": "詹米血", "id": 76, "image": "http://tresor.tw/media/images/facebook_profiles/2013/10/10/fb_image_None_32.jpg", "image_small": "http://graph.facebook.com/100000265609375/picture", "username": "zhanyxuan9"}, "size": "F", "sold_price": 100, "title": "格子連帽襯衫", "transaction_status": "on", "wait_list": []}, {"bought_price": null, "buyer_id": "-1", "confirm_list": [], "date_added": "2014-02-13T21:48:18.126000", "date_closed": null, "description": "若單買襯衫或毛衣各100元,一起買150元", "gender": "F", "id": "52fccd22f7500bf864e39922", "image": [{"h50": {"height": 50, "relative_path": "http://tresor.tw/media/images/products/52fccd22f7500bf864e39922-171181356583354062299936928513964035075_h50.jpg", "width": 38}, "w236": {"height": 315, "relative_path": "http://tresor.tw/media/images/products/52fccd22f7500bf864e39922-170836755275061519848860560972856609795_w236.jpg", "width": 236}, "w960": {"height": 1280, "relative_path": "http://tresor.tw/media/images/products/52fccd22f7500bf864e39922-170493218000991543967838074727002196995_w960.jpg", "width": 960}}], "product_status": "全新僅試穿", "resource_type": "clothes", "seller": {"facebook_id": "100000265609375", "facebook_name": "詹米血", "id": 76, "image": "http://tresor.tw/media/images/facebook_profiles/2013/10/10/fb_image_None_32.jpg", "image_small": "http://graph.facebook.com/100000265609375/picture", "username": "zhanyxuan9"}, "size": "F", "sold_price": 150, "title": "格子連帽襯衫+粉色素面毛衣", "transaction_status": "on", "wait_list": []}, {"bought_price": 240, "buyer_id": "-1", "confirm_list": [], "date_added": "2014-02-13T21:43:19.611000", "date_closed": null, "description": "購自衣芙日系http://www.efshop.com.tw/product/16915", "gender": "F", "id": "52fccbf7f7500bf864e39921", "image": [{"h50": {"height": 50, "relative_path": "http://tresor.tw/media/images/products/52fccbf7f7500bf864e39921-272302072823754103755744247610034015235_h50.jpg", "width": 33}, "w236": {"height": 354, "relative_path": "http://tresor.tw/media/images/products/52fccbf7f7500bf864e39921-272269026757169404100533980428348869635_w236.jpg", "width": 236}, "w960": {"height": 750, "relative_path": "http://tresor.tw/media/images/products/52fccbf7f7500bf864e39921-272221754481723643140865416494941391875_w960.jpg", "width": 500}}], "product_status": "僅穿過1次", "resource_type": "dress", "seller": {"facebook_id": "100000265609375", "facebook_name": "詹米血", "id": 76, "image": "http://tresor.tw/media/images/facebook_profiles/2013/10/10/fb_image_None_32.jpg", "image_small": "http://graph.facebook.com/100000265609375/picture", "username": "zhanyxuan9"}, "size": "F", "sold_price": 100, "title": "學院風采公主領配色磨毛洋裝(可可色)", "transaction_status": "on", "wait_list": []}, {"bought_price": null, "buyer_id": "-1", "confirm_list": [], "date_added": "2014-02-13T19:07:34.719000", "date_closed": null, "description": "", "gender": "N", "id": "52fca776f7500bf872e39921", "image": [{"h50": {"height": 50, "relative_path": "http://tresor.tw/media/images/products/52fca776f7500bf872e39921-16357981268788071560731695742781934595_h50.jpg", "width": 63}, "w236": {"height": 186, "relative_path": "http://tresor.tw/media/images/products/52fca776f7500bf872e39921-16295851336026010609834214512367946755_w236.jpg", "width": 236}, "w960": {"height": 757, "relative_path": "http://tresor.tw/media/images/products/52fca776f7500bf872e39921-16227369681475181086991858863455521795_w960.jpg", "width": 958}}], "product_status": "全新空運", "resource_type": "clothes", "seller": {"facebook_id": "100000357010783", "facebook_name": "Jasmine Hsieh", "id": 2686, "image": "http://tresor.tw/media/images/facebook_profiles/2014/02/13/fb_image_None_1.jpg", "image_small": "http://graph.facebook.com/100000357010783/picture", "username": "heyjasminehsieh"}, "size": "F", "sold_price": 3990, "title": "A&F全系列代購", "transaction_status": "on", "wait_list": []}, {"bought_price": null, "buyer_id": "-1", "confirm_list": [], "date_added": "2014-02-12T23:04:04.249000", "date_closed": null, "description": "", "gender": "F", "id": "52fb8d64f7500b15fce3992a", "image": [{"h50": {"height": 50, "relative_path": "http://tresor.tw/media/images/products/52fb8d64f7500b15fce3992a-310854373899313537413312684307214420995_h50.jpg", "width": 28}, "w236": {"height": 419, "relative_path": "http://tresor.tw/media/images/products/52fb8d64f7500b15fce3992a-310808939717238107386276290593454738435_w236.jpg", "width": 236}, "w960": {"height": 960, "relative_path": "http://tresor.tw/media/images/products/52fb8d64f7500b15fce3992a-310744011445776042618975005390714883075_w960.jpg", "width": 541}}], "product_status": "九成新", "resource_type": "coat", "seller": {"facebook_id": "100000255465675", "facebook_name": "Kelsey Cheng", "id": 423, "image": "http://tresor.tw/media/images/facebook_profiles/2013/10/11/fb_image_None_154.jpg", "image_small": "http://graph.facebook.com/100000255465675/picture", "username": "kelseycheng5"}, "size": "F", "sold_price": 350, "title": "藍色軍裝外套", "transaction_status": "on", "wait_list": []}, {"bought_price": 299, "buyer_id": "-1", "confirm_list": [], "date_added": "2014-02-12T14:25:15.316000", "date_closed": null, "description": "買的時候是最後一雙棕色的37號\n可約看不開放試穿\n商品資訊:\n[版型: 偏小版\n產地: 台灣\n重量: 700 g\n跟型: 高跟\n前跟高: 1cm 後跟高: 6cm 內增高: cm 寬: cm\n筒高: 9.5cm 踝圍: cm 筒圍: 自行調整cm 長: cm\n適用高度:\n臀圍:\n材質:\n鞋面:超纖仿真牛紋PU革\n內裡:進口水晶珠光內裡+進口透氣PU鞋墊\n鞋底:合成橡膠防滑刻紋底\n尺寸表:http://www.fmshoes.com.tw/FM_info.asp?cat=1&id=201310000018]", "gender": "F", "id": "52fb13cbf7500b15f9e39929", "image": [{"h50": {"height": 50, "relative_path": "http://tresor.tw/media/images/products/52fb13cbf7500b15f9e39929-148216362843202518578252677759804296195_h50.jpg", "width": 67}, "w236": {"height": 177, "relative_path": "http://tresor.tw/media/images/products/52fb13cbf7500b15f9e39929-148182074479029595258228943808977882115_w236.jpg", "width": 236}, "w960": {"height": 498, "relative_path": "http://tresor.tw/media/images/products/52fb13cbf7500b15f9e39929-148141185616637608576240291711648975875_w960.jpg", "width": 664}}, {"h50": {"height": 50, "relative_path": "http://tresor.tw/media/images/products/52fb13cbf7500b15f9e39929-148260438262290828971899342194815716355_h50.jpg", "width": 50}, "w236": {"height": 236, "relative_path": "http://tresor.tw/media/images/products/52fb13cbf7500b15f9e39929-148206260460200324732566124970696952835_w236.jpg", "width": 236}, "w960": {"height": 756, "relative_path": "http://tresor.tw/media/images/products/52fb13cbf7500b15f9e39929-148147868512145686773116307143859817475_w960.jpg", "width": 757}}], "product_status": "全新的連試穿都沒有", "resource_type": "shoes", "seller": {"facebook_id": "1213670752", "facebook_name": "Laura Laura Huang", "id": 144, "image": "http://tresor.tw/media/images/facebook_profiles/2013/10/10/fb_image_None_100.jpg", "image_small": "http://graph.facebook.com/1213670752/picture", "username": "lorindalison"}, "size": "37.00", "sold_price": 299, "title": "FM美鞋 訂製款-簡約牛紋高跟短筒靴", "transaction_status": "on", "wait_list": []}, {"bought_price": null, "buyer_id": "-1", "confirm_list": [], "date_added": "2014-02-11T18:25:21.722000", "date_closed": null, "description": "有正常使用痕跡，已升級ios7，原廠傳輸線些微破損，另附一條副廠傳輸線", "id": "52f9fa91f7500b15fde3992b", "image": [{"h50": {"height": 50, "relative_path": "http://tresor.tw/media/images/products/52f9fa91f7500b15fde3992b-279747197129850195156724845687870508035_h50.jpg", "width": 67}, "w236": {"height": 177, "relative_path": "http://tresor.tw/media/images/products/52f9fa91f7500b15fde3992b-278901463432585678202788545822976822275_w236.jpg", "width": 236}, "w960": {"height": 720, "relative_path": "http://tresor.tw/media/images/products/52f9fa91f7500b15fde3992b-278089571252657504118011952321029655555_w960.jpg", "width": 960}}], "product_status": "已過保", "resource_type": "electronics", "seller": {"facebook_id": "100000365863879", "facebook_name": "Hunter Wu", "id": 251, "image": "http://tresor.tw/media/images/facebook_profiles/2013/10/10/fb_image_None_207.jpg", "image_small": "http://graph.facebook.com/100000365863879/picture", "username": "maerskht"}, "sold_price": 4500, "title": "二手iPhone 4 白16G", "transaction_status": "on", "wait_list": []}, {"bought_price": 600, "buyer_id": "-1", "confirm_list": [], "date_added": "2014-02-11T14:20:12.216000", "date_closed": null, "description": "使用期限到2016.05\n", "id": "52f9c11cf7500b15f9e39927", "image": [{"h50": {"height": 50, "relative_path": "http://tresor.tw/media/images/products/52f9c11cf7500b15f9e39927-195255553154466760291799804636388314115_h50.jpg", "width": 37}, "w236": {"height": 316, "relative_path": "http://tresor.tw/media/images/products/52f9c11cf7500b15f9e39927-194695063818420724089858165120449825795_w236.jpg", "width": 236}, "w960": {"height": 1285, "relative_path": "http://tresor.tw/media/images/products/52f9c11cf7500b15f9e39927-194117796334399042129144340802148682755_w960.jpg", "width": 960}}], "product_status": "全新未拆封 盒子和封套都沒拆", "resource_type": "others", "seller": {"facebook_id": "1581052227", "facebook_name": "Julia Wang", "id": 2495, "image": "http://tresor.tw/media/images/facebook_profiles/2014/01/04/fb_image_None_3.jpg", "image_small": "http://graph.facebook.com/1581052227/picture", "username": "juliawang37051"}, "sold_price": 400, "title": "LANCOME 蘭蔻 美好人生香水沐浴膠(200ml)", "transaction_status": "on", "wait_list": []}, {"bought_price": null, "buyer_id": "-1", "confirm_list": [], "date_added": "2014-02-11T04:24:06.075000", "date_closed": null, "description": "", "id": "52f93566f7500b15fbe3992c", "image": [{"h50": {"height": 50, "relative_path": "http://tresor.tw/media/images/products/52f93566f7500b15fbe3992c-99186329006710671029318081149062269955_h50.jpg", "width": 38}, "w236": {"height": 315, "relative_path": "http://tresor.tw/media/images/products/52f93566f7500b15fbe3992c-99115121903369350813262507588258286595_w236.jpg", "width": 236}, "w960": {"height": 960, "relative_path": "http://tresor.tw/media/images/products/52f93566f7500b15fbe3992c-99025199523478911075380587075505933315_w960.jpg", "width": 720}}], "product_status": "全新", "resource_type": "accessories", "seller": {"facebook_id": "1647886597", "facebook_name": "Christine Su", "id": 2677, "image": "http://tresor.tw/media/images/facebook_profiles/2014/02/11/fb_image_None.jpg", "image_small": "http://graph.facebook.com/1647886597/picture", "username": "shellingford48690504"}, "sold_price": 20, "title": "米奇吊飾", "transaction_status": "on", "wait_list": []}, {"bought_price": null, "buyer_id": "-1", "confirm_list": [], "date_added": "2014-02-11T04:23:42.478000", "date_closed": null, "description": "", "id": "52f9354ef7500b15f9e39926", "image": [{"h50": {"height": 50, "relative_path": "http://tresor.tw/media/images/products/52f9354ef7500b15f9e39926-80759417616131066827223599245851282435_h50.jpg", "width": 67}, "w236": {"height": 177, "relative_path": "http://tresor.tw/media/images/products/52f9354ef7500b15f9e39926-80683151794613210833212677903818345475_w236.jpg", "width": 236}, "w960": {"height": 720, "relative_path": "http://tresor.tw/media/images/products/52f9354ef7500b15f9e39926-80583927236161971319453899395857042435_w960.jpg", "width": 960}}], "product_status": "全新", "resource_type": "accessories", "seller": {"facebook_id": "1647886597", "facebook_name": "Christine Su", "id": 2677, "image": "http://tresor.tw/media/images/facebook_profiles/2014/02/11/fb_image_None.jpg", "image_small": "http://graph.facebook.com/1647886597/picture", "username": "shellingford48690504"}, "sold_price": 10, "title": "中型徽章", "transaction_status": "on", "wait_list": []}, {"bought_price": null, "buyer_id": "-1", "confirm_list": [], "date_added": "2014-02-11T04:23:03.025000", "date_closed": null, "description": "", "id": "52f93527f7500b15fbe3992b", "image": [{"h50": {"height": 50, "relative_path": "http://tresor.tw/media/images/products/52f93527f7500b15fbe3992b-49324648240593886584261486102587558915_h50.jpg", "width": 67}, "w236": {"height": 177, "relative_path": "http://tresor.tw/media/images/products/52f93527f7500b15fbe3992b-49247548938806380529419080678197087235_w236.jpg", "width": 236}, "w960": {"height": 720, "relative_path": "http://tresor.tw/media/images/products/52f93527f7500b15fbe3992b-49159671437790433954090449534802906115_w960.jpg", "width": 960}}], "product_status": "全新", "resource_type": "accessories", "seller": {"facebook_id": "1647886597", "facebook_name": "Christine Su", "id": 2677, "image": "http://tresor.tw/media/images/facebook_profiles/2014/02/11/fb_image_None.jpg", "image_small": "http://graph.facebook.com/1647886597/picture", "username": "shellingford48690504"}, "sold_price": 10, "title": "凱蒂貓鑰匙圈", "transaction_status": "on", "wait_list": []}, {"bought_price": null, "buyer_id": "-1", "confirm_list": [], "date_added": "2014-02-11T04:22:36.239000", "date_closed": null, "description": "", "id": "52f9350cf7500b15fae39926", "image": [{"h50": {"height": 50, "relative_path": "http://tresor.tw/media/images/products/52f9350cf7500b15fae39926-28147425469844987877168862280763231235_h50.jpg", "width": 67}, "w236": {"height": 177, "relative_path": "http://tresor.tw/media/images/products/52f9350cf7500b15fae39926-28072302118430587574906039842494139395_w236.jpg", "width": 236}, "w960": {"height": 720, "relative_path": "http://tresor.tw/media/images/products/52f9350cf7500b15fae39926-27981716598819903444518461366877473795_w960.jpg", "width": 960}}], "product_status": "全新", "resource_type": "accessories", "seller": {"facebook_id": "1647886597", "facebook_name": "Christine Su", "id": 2677, "image": "http://tresor.tw/media/images/facebook_profiles/2014/02/11/fb_image_None.jpg", "image_small": "http://graph.facebook.com/1647886597/picture", "username": "shellingford48690504"}, "sold_price": 10, "title": "小徽章", "transaction_status": "on", "wait_list": []}, {"bought_price": null, "buyer_id": "-1", "confirm_list": [], "date_added": "2014-02-11T04:22:08.847000", "date_closed": null, "description": "", "id": "52f934f0f7500b15fae39925", "image": [{"h50": {"height": 50, "relative_path": "http://tresor.tw/media/images/products/52f934f0f7500b15fae39925-6763903655851696831989913108417006595_h50.jpg", "width": 67}, "w236": {"height": 177, "relative_path": "http://tresor.tw/media/images/products/52f934f0f7500b15fae39925-6690665934705136020961817016165911555_w236.jpg", "width": 236}, "w960": {"height": 720, "relative_path": "http://tresor.tw/media/images/products/52f934f0f7500b15fae39925-6609411115793756801612630211580316675_w960.jpg", "width": 960}}], "product_status": "全新", "resource_type": "accessories", "seller": {"facebook_id": "1647886597", "facebook_name": "Christine Su", "id": 2677, "image": "http://tresor.tw/media/images/facebook_profiles/2014/02/11/fb_image_None.jpg", "image_small": "http://graph.facebook.com/1647886597/picture", "username": "shellingford48690504"}, "sold_price": 10, "title": "小吊飾/鑰匙圈", "transaction_status": "on", "wait_list": []}, {"bought_price": null, "buyer_id": "-1", "confirm_list": [], "date_added": "2014-02-11T04:21:36.725000", "date_closed": null, "description": "", "id": "52f934d0f7500b15fae39924", "image": [{"h50": {"height": 50, "relative_path": "http://tresor.tw/media/images/products/52f934d0f7500b15fae39924-321440347224127953863788106740667436035_h50.jpg", "width": 67}, "w236": {"height": 177, "relative_path": "http://tresor.tw/media/images/products/52f934d0f7500b15fae39924-321362049200241606989517910996308380675_w236.jpg", "width": 236}, "w960": {"height": 720, "relative_path": "http://tresor.tw/media/images/products/52f934d0f7500b15fae39924-321272598227918127124444672070060526595_w960.jpg", "width": 960}}], "product_status": "全新", "resource_type": "accessories", "seller": {"facebook_id": "1647886597", "facebook_name": "Christine Su", "id": 2677, "image": "http://tresor.tw/media/images/facebook_profiles/2014/02/11/fb_image_None.jpg", "image_small": "http://graph.facebook.com/1647886597/picture", "username": "shellingford48690504"}, "sold_price": 20, "title": "PF大徽章", "transaction_status": "on", "wait_list": []}, {"bought_price": null, "buyer_id": "-1", "confirm_list": [], "date_added": "2014-02-11T04:21:06.900000", "date_closed": null, "description": "", "id": "52f934b2f7500b15fbe3992a", "image": [{"h50": {"height": 50, "relative_path": "http://tresor.tw/media/images/products/52f934b2f7500b15fbe3992a-297818560098323682728974458652652915715_h50.jpg", "width": 67}, "w236": {"height": 177, "relative_path": "http://tresor.tw/media/images/products/52f934b2f7500b15fbe3992a-297735984545943190723117587470415219715_w236.jpg", "width": 236}, "w960": {"height": 720, "relative_path": "http://tresor.tw/media/images/products/52f934b2f7500b15fbe3992a-297647161060666823831598089412254026755_w960.jpg", "width": 960}}], "product_status": "全新", "resource_type": "accessories", "seller": {"facebook_id": "1647886597", "facebook_name": "Christine Su", "id": 2677, "image": "http://tresor.tw/media/images/facebook_profiles/2014/02/11/fb_image_None.jpg", "image_small": "http://graph.facebook.com/1647886597/picture", "username": "shellingford48690504"}, "sold_price": 10, "title": "小吊飾", "transaction_status": "on", "wait_list": []}, {"bought_price": null, "buyer_id": "-1", "confirm_list": [], "date_added": "2014-02-11T04:20:27.551000", "date_closed": null, "description": "", "id": "52f9348bf7500b15fde3992a", "image": [{"h50": {"height": 50, "relative_path": "http://tresor.tw/media/images/products/52f9348bf7500b15fde3992a-266633387164563315141950166693330209795_h50.jpg", "width": 67}, "w236": {"height": 177, "relative_path": "http://tresor.tw/media/images/products/52f9348bf7500b15fde3992a-266553659864625210939029783416107092995_w236.jpg", "width": 236}, "w960": {"height": 720, "relative_path": "http://tresor.tw/media/images/products/52f9348bf7500b15fde3992a-266462987986317386260514227977584561155_w960.jpg", "width": 960}}], "product_status": "全新", "resource_type": "others", "seller": {"facebook_id": "1647886597", "facebook_name": "Christine Su", "id": 2677, "image": "http://tresor.tw/media/images/facebook_profiles/2014/02/11/fb_image_None.jpg", "image_small": "http://graph.facebook.com/1647886597/picture", "username": "shellingford48690504"}, "sold_price": 20, "title": "黑執事徽章", "transaction_status": "on", "wait_list": []}, {"bought_price": null, "buyer_id": "-1", "confirm_list": [], "date_added": "2014-02-11T04:19:57.372000", "date_closed": null, "description": "意呆利跟黑執事", "id": "52f9346df7500b15f9e39925", "image": [{"h50": {"height": 50, "relative_path": "http://tresor.tw/media/images/products/52f9346df7500b15f9e39925-242732563996355181008635688360308820995_h50.jpg", "width": 67}, "w236": {"height": 177, "relative_path": "http://tresor.tw/media/images/products/52f9346df7500b15f9e39925-242655565314334068069502026736735276035_w236.jpg", "width": 236}, "w960": {"height": 720, "relative_path": "http://tresor.tw/media/images/products/52f9346df7500b15f9e39925-242567582439861977522604396179887148035_w960.jpg", "width": 960}}], "product_status": "全新", "resource_type": "others", "seller": {"facebook_id": "1647886597", "facebook_name": "Christine Su", "id": 2677, "image": "http://tresor.tw/media/images/facebook_profiles/2014/02/11/fb_image_None.jpg", "image_small": "http://graph.facebook.com/1647886597/picture", "username": "shellingford48690504"}, "sold_price": 10, "title": "悠遊卡貼", "transaction_status": "on", "wait_list": []}, {"bought_price": 220, "buyer_id": "-1", "confirm_list": [], "date_added": "2014-02-11T04:19:06.028000", "date_closed": null, "description": "", "id": "52f9343af7500b15fde39929", "image": [{"h50": {"height": 50, "relative_path": "http://tresor.tw/media/images/products/52f9343af7500b15fde39929-201780649455794772032196520949406682115_h50.jpg", "width": 38}, "w236": {"height": 315, "relative_path": "http://tresor.tw/media/images/products/52f9343af7500b15fde39929-201702524149302706254182279130859359235_w236.jpg", "width": 236}, "w960": {"height": 960, "relative_path": "http://tresor.tw/media/images/products/52f9343af7500b15fde39929-201607893239714043786717174301138537475_w960.jpg", "width": 720}}], "product_status": "全新未拆封", "resource_type": "others", "seller": {"facebook_id": "1647886597", "facebook_name": "Christine Su", "id": 2677, "image": "http://tresor.tw/media/images/facebook_profiles/2014/02/11/fb_image_None.jpg", "image_small": "http://graph.facebook.com/1647886597/picture", "username": "shellingford48690504"}, "sold_price": 150, "title": "瑪宣妮 保濕髮妝水 ", "transaction_status": "on", "wait_list": []}, {"bought_price": null, "buyer_id": "-1", "confirm_list": [], "date_added": "2014-02-11T04:18:27.561000", "date_closed": null, "description": "", "id": "52f93413f7500b15fde39928", "image": [{"h50": {"height": 50, "relative_path": "http://tresor.tw/media/images/products/52f93413f7500b15fde39928-171854259114032412239362086821098867715_h50.jpg", "width": 38}, "w236": {"height": 315, "relative_path": "http://tresor.tw/media/images/products/52f93413f7500b15fde39928-171778370418568124143598110748269530115_w236.jpg", "width": 236}, "w960": {"height": 960, "relative_path": "http://tresor.tw/media/images/products/52f93413f7500b15fde39928-171681519535865811989393634817060293635_w960.jpg", "width": 720}}], "product_status": "全新未拆封", "resource_type": "others", "seller": {"facebook_id": "1647886597", "facebook_name": "Christine Su", "id": 2677, "image": "http://tresor.tw/media/images/facebook_profiles/2014/02/11/fb_image_None.jpg", "image_small": "http://graph.facebook.com/1647886597/picture", "username": "shellingford48690504"}, "sold_price": 20, "title": "巧克力造型小鏡子", "transaction_status": "on", "wait_list": []}, {"bought_price": 2280, "buyer_id": "-1", "confirm_list": [], "date_added": "2014-02-11T04:17:55.951000", "date_closed": null, "description": "", "id": "52f933f3f7500b15fbe39929", "image": [{"h50": {"height": 50, "relative_path": "http://tresor.tw/media/images/products/52f933f3f7500b15fbe39929-146197539417257019296200562882437368835_h50.jpg", "width": 67}, "w236": {"height": 177, "relative_path": "http://tresor.tw/media/images/products/52f933f3f7500b15fbe39929-146119158203800032444375893916930460675_w236.jpg", "width": 236}, "w960": {"height": 720, "relative_path": "http://tresor.tw/media/images/products/52f933f3f7500b15fbe39929-146032732955002972334355352434145938435_w960.jpg", "width": 960}}], "product_status": "全新", "resource_type": "others", "seller": {"facebook_id": "1647886597", "facebook_name": "Christine Su", "id": 2677, "image": "http://tresor.tw/media/images/facebook_profiles/2014/02/11/fb_image_None.jpg", "image_small": "http://graph.facebook.com/1647886597/picture", "username": "shellingford48690504"}, "sold_price": 1500, "title": "莎芭波濤美型乳胸霜50ml", "transaction_status": "on", "wait_list": []}, {"bought_price": 80, "buyer_id": "-1", "confirm_list": [], "date_added": "2014-02-11T04:17:12.508000", "date_closed": null, "description": "", "id": "52f933c8f7500b15fae39923", "image": [{"h50": {"height": 50, "relative_path": "http://tresor.tw/media/images/products/52f933c8f7500b15fae39923-112499326812143450899759898491528072195_h50.jpg", "width": 38}, "w236": {"height": 315, "relative_path": "http://tresor.tw/media/images/products/52f933c8f7500b15fae39923-112422929471875821226948571866537577475_w236.jpg", "width": 236}, "w960": {"height": 960, "relative_path": "http://tresor.tw/media/images/products/52f933c8f7500b15fae39923-112329286537473711635773258529877445635_w960.jpg", "width": 720}}], "product_status": "全新", "resource_type": "others", "seller": {"facebook_id": "1647886597", "facebook_name": "Christine Su", "id": 2677, "image": "http://tresor.tw/media/images/facebook_profiles/2014/02/11/fb_image_None.jpg", "image_small": "http://graph.facebook.com/1647886597/picture", "username": "shellingford48690504"}, "sold_price": 50, "title": "澳寶一分鐘焗油", "transaction_status": "on", "wait_list": []}, {"bought_price": 650, "buyer_id": "-1", "confirm_list": [], "date_added": "2014-02-11T04:16:33.398000", "date_closed": null, "description": "", "id": "52f933a1f7500b15fbe39928", "image": [{"h50": {"height": 50, "relative_path": "http://tresor.tw/media/images/products/52f933a1f7500b15fbe39928-80845967728511040492020573524726828035_h50.jpg", "width": 67}, "w236": {"height": 177, "relative_path": "http://tresor.tw/media/images/products/52f933a1f7500b15fbe39928-80772382988012667203193817709973261315_w236.jpg", "width": 236}, "w960": {"height": 720, "relative_path": "http://tresor.tw/media/images/products/52f933a1f7500b15fbe39928-80684221850174919561536601679236877315_w960.jpg", "width": 960}}], "product_status": "全新", "resource_type": "others", "seller": {"facebook_id": "1647886597", "facebook_name": "Christine Su", "id": 2677, "image": "http://tresor.tw/media/images/facebook_profiles/2014/02/11/fb_image_None.jpg", "image_small": "http://graph.facebook.com/1647886597/picture", "username": "shellingford48690504"}, "sold_price": 400, "title": "視康日拋500度30片", "transaction_status": "on", "wait_list": []}, {"bought_price": null, "buyer_id": "-1", "confirm_list": [], "date_added": "2014-02-11T04:15:39.382000", "date_closed": null, "description": "", "id": "52f9336bf7500b15fce39928", "image": [{"h50": {"height": 50, "relative_path": "http://tresor.tw/media/images/products/52f9336bf7500b15fce39928-38200229547868423386308774386954324995_h50.jpg", "width": 67}, "w236": {"height": 177, "relative_path": "http://tresor.tw/media/images/products/52f9336bf7500b15fce39928-38122742820366222578855536532646710275_w236.jpg", "width": 236}, "w960": {"height": 720, "relative_path": "http://tresor.tw/media/images/products/52f9336bf7500b15fce39928-38033813961633711715767039061031570435_w960.jpg", "width": 960}}], "product_status": "全新", "resource_type": "others", "seller": {"facebook_id": "1647886597", "facebook_name": "Christine Su", "id": 2677, "image": "http://tresor.tw/media/images/facebook_profiles/2014/02/11/fb_image_None.jpg", "image_small": "http://graph.facebook.com/1647886597/picture", "username": "shellingford48690504"}, "sold_price": 50, "title": "帝康雙周拋550度", "transaction_status": "on", "wait_list": []}, {"bought_price": null, "buyer_id": "-1", "confirm_list": [], "date_added": "2014-02-11T04:14:56.952000", "date_closed": null, "description": "", "id": "52f93340f7500b15fde39927", "image": [{"h50": {"height": 50, "relative_path": "http://tresor.tw/media/images/products/52f93340f7500b15fde39927-4520332117083277476789609551044201475_h50.jpg", "width": 38}, "w236": {"height": 315, "relative_path": "http://tresor.tw/media/images/products/52f93340f7500b15fde39927-4445909934907128413914489976735583235_w236.jpg", "width": 236}, "w960": {"height": 960, "relative_path": "http://tresor.tw/media/images/products/52f93340f7500b15fde39927-4353895139244686954876723968254856195_w960.jpg", "width": 720}}], "product_status": "全新", "resource_type": "cosmeceutical", "seller": {"facebook_id": "1647886597", "facebook_name": "Christine Su", "id": 2677, "image": "http://tresor.tw/media/images/facebook_profiles/2014/02/11/fb_image_None.jpg", "image_small": "http://graph.facebook.com/1647886597/picture", "username": "shellingford48690504"}, "sold_price": 50, "title": "資生堂 淨白肌密 柔膚乳 30ml裝", "transaction_status": "on", "wait_list": []}, {"bought_price": 149, "buyer_id": "-1", "confirm_list": [], "date_added": "2014-02-11T04:14:27.510000", "date_closed": null, "description": "", "id": "52f93323f7500b15fce39927", "image": [{"h50": {"height": 50, "relative_path": "http://tresor.tw/media/images/products/52f93323f7500b15fce39927-321842906785512322265510690419853151235_h50.jpg", "width": 38}, "w236": {"height": 315, "relative_path": "http://tresor.tw/media/images/products/52f93323f7500b15fce39927-321766174310117257254551343103952735235_w236.jpg", "width": 236}, "w960": {"height": 960, "relative_path": "http://tresor.tw/media/images/products/52f93323f7500b15fce39927-321649730302825167529659983753825405955_w960.jpg", "width": 720}}], "product_status": "全新未拆封", "resource_type": "others", "seller": {"facebook_id": "1647886597", "facebook_name": "Christine Su", "id": 2677, "image": "http://tresor.tw/media/images/facebook_profiles/2014/02/11/fb_image_None.jpg", "image_small": "http://graph.facebook.com/1647886597/picture", "username": "shellingford48690504"}, "sold_price": 70, "title": "琍睫lijay透明梗月拋式2對入", "transaction_status": "on", "wait_list": []}]}